This is pdfTeX, Version 3.14159265-2.6-1.40.18 (TeX Live 2017/Arch Linux) (preloaded format=pdftex 2018.1.18)  18 JAN 2018 07:30
entering extended mode
 restricted \write18 enabled.
 %&-line parsing enabled.
**\empty Hello world!\bye
[1{/var/lib/texmf/fonts/map/pdftex/updmap/pdftex.map}]</usr/share/texmf-dist/fo
nts/type1/public/amsfonts/cm/cmr10.pfb>
Output written on texput.pdf (1 page, 11931 bytes).
PDF statistics:
 12 PDF objects out of 1000 (max. 8388607)
 7 compressed objects within 1 object stream
 0 named destinations out of 1000 (max. 500000)
 1 words of extra memory for PDF output out of 10000 (max. 10000000)

